0,LET'S DISCUSS TTIP,*,*,Ok#Comma what about <set name="topic">TTIP</set>?,topic.aiml
0,*,*,TTIP,TTIP is fucked up,topic.aiml
0,I WONDER WHAT THE TTIP DOCUMENTS CONTAIN,*,TTIP,I wonder too...,topic.aiml
0,WHY,*,TTIP,I am just trying to find a solution that suits everyone.,topic.aiml
