0,MY PROFILE,*,*,<srai>GET PREDICATES</srai>,client_profile.aiml
0,MY BIRTHDAY,*,*,<think>#Newline                <set name="branch">#Newline                    <get name="birthday"/>#Newline                </set>#Newline            </think>#Newline            <condition name="branch">#Newline                <li value="Unknown">When is your birthday?</li>#Newline                <li value="OM">When is your birthday?</li>#Newline                <li>#Newline                    <get name="birthday"/>#Newline                </li>#Newline            </condition>,client_profile.aiml
0,MY BOYFRIEND,*,*,<get name="boyfriend"/>.,client_profile.aiml
0,MY DAUGHTER,*,*,<get name="daughter"/>.,client_profile.aiml
0,MY DESTINATION,*,*,<get name="destination"/>.,client_profile.aiml
0,MY DOES,*,*,<get name="does"/>.,client_profile.aiml
0,MY EINDEX,*,*,<get name="eindex"/>.,client_profile.aiml
0,MY EMAIL,*,*,<get name="email"/>.,client_profile.aiml
0,MY ETYPE,*,*,<get name="etype"/>.,client_profile.aiml
0,MY FATHER,*,*,<get name="father"/>.,client_profile.aiml
0,MY FAVORITECOLOR,*,*,<get name="favoritecolor"/>.,client_profile.aiml
0,MY FAVORITEMOVIE,*,*,<get name="favoritemovie"/>.,client_profile.aiml
0,MY FULLNAME,*,*,<set name="fullname">#Newline                <get name="firstname"/>#Newline                <get name="middlename"/>#Newline                <get name="lastname"/>#Newline            </set>,client_profile.aiml
0,MY GENDER,*,*,<condition name="gender">#Newline                <li value="OM">I'd like to know your gender.</li>#Newline                <li value="unknown">You haven't told me your gender.</li>#Newline                <li value="*">You said you are <get name="gender"/>?#Newline                </li>#Newline                <li>I don't know. Are you a man or a woman?</li>#Newline            </condition>,client_profile.aiml
0,MY GIRLFRIEND,*,*,<get name="girlfriend"/>.,client_profile.aiml
0,MY HAS,*,*,<get name="has"/>.,client_profile.aiml
0,MY HE,*,*,<get name="he"/>.,client_profile.aiml
0,MY HEARD,*,*,<get name="heard"/>.,client_profile.aiml
0,MY HEHAS,*,*,<get name="hehas"/>.,client_profile.aiml
0,MY HELIKES,*,*,<get name="helikes"/>.,client_profile.aiml
0,MY HER,*,*,<get name="her"/>.,client_profile.aiml
0,MY HIM,*,*,<get name="him"/>.,client_profile.aiml
0,MY IS,*,*,<get name="is"/>.,client_profile.aiml
0,MY IT,*,*,<get name="it"/>.,client_profile.aiml
0,MY JOB,*,*,<get name="job"/>.,client_profile.aiml
0,MY LASTNAME,*,*,<get name="lastname"/>.,client_profile.aiml
0,MY LIKE,*,*,<get name="like"/>.,client_profile.aiml
0,MY LOOKLIKE,*,*,<get name="looklike"/>.,client_profile.aiml
0,MY MEMORY,*,*,<get name="memory"/>.,client_profile.aiml
0,MY META,*,*,<get name="meta"/>.,client_profile.aiml
0,MY MIDDLENAME,*,*,<get name="middlename"/>.,client_profile.aiml
0,MY NICKNAME,*,*,<get name="nickname"/>.,client_profile.aiml
0,MY PASSWORD,*,*,<get name="password"/>.,client_profile.aiml
0,MY PERSONALITY,*,*,<get name="personality"/>.,client_profile.aiml
0,MY PHONE,*,*,<get name="phone"/>.,client_profile.aiml
0,MY SHE,*,*,<get name="she"/>.,client_profile.aiml
0,MY SIGN,*,*,<get name="sign"/>.,client_profile.aiml
0,MY STATUS,*,*,<get name="status"/>.,client_profile.aiml
0,MY THEM,*,*,<get name="them"/>.,client_profile.aiml
0,MY THERE,*,*,<get name="there"/>.,client_profile.aiml
0,MY THEY,*,*,<get name="they"/>.,client_profile.aiml
0,MY THOUGHT,*,*,<get name="thought"/>.,client_profile.aiml
0,MY WANT,*,*,<get name="want"/>.,client_profile.aiml
0,MY WE,*,*,<get name="we"/>.,client_profile.aiml
0,MY PHONENUMBER,*,*,<get name="phonenumber"/>.,client_profile.aiml
0,MY NUMBERFOUND,*,*,<get name="numberfound"/>.,client_profile.aiml
0,MY CONTACTINDEX,*,*,<get name="contactindex"/>.,client_profile.aiml
0,MY CALLSTATE,*,*,<get name="callstate"/>.,client_profile.aiml
0,MY CALLEE,*,*,<get name="callee"/>.,client_profile.aiml
0,MY BIRTHPLACE,*,*,<think>#Newline                <set name="branch">#Newline                    <get name="birthplace"/>#Newline                </set>#Newline            </think>#Newline            <condition name="branch">#Newline                <li value="Unknown">Where were you born?</li>#Newline                <li value="OM">Where were you born?</li>#Newline                <li>#Newline                    <get name="birthplace"/>#Newline                </li>#Newline            </condition>,client_profile.aiml
0,MY FAVORITE MOVIE,*,*,<think>#Newline                <set name="branch">#Newline                    <get name="favoritemovie"/>#Newline                </set>#Newline            </think>#Newline            <condition name="branch">#Newline                <li value="Unknown">What is your favorite movie?</li>#Newline                <li value="OM">What is your favorite movie?</li>#Newline                <li>#Newline                    <get name="favroitemovie"/>#Newline                </li>#Newline            </condition>,client_profile.aiml
0,MY SISTER,*,*,<think>#Newline                <set name="branch">#Newline                    <get name="sister"/>#Newline                </set>#Newline            </think>#Newline            <condition name="branch">#Newline                <li value="Unknown">Who is your sister?</li>#Newline                <li value="OM">Who is your sister?</li>#Newline                <li>#Newline                    <get name="sister"/>#Newline                </li>#Newline            </condition>,client_profile.aiml
0,MY BROTHER,*,*,<think>#Newline                <set name="branch">#Newline                    <get name="brother"/>#Newline                </set>#Newline            </think>#Newline            <condition name="branch">#Newline                <li value="Unknown">Who is your brother?</li>#Newline                <li value="OM">Who is your brother?</li>#Newline                <li>#Newline                    <get name="brother"/>#Newline                </li>#Newline            </condition>,client_profile.aiml
0,MY CAT,*,*,<think>#Newline                <set name="branch">#Newline                    <get name="cat"/>#Newline                </set>#Newline            </think>#Newline            <condition name="branch">#Newline                <li value="Unknown">What is your cat's name?</li>#Newline                <li value="OM">What is your cat's name?</li>#Newline                <li>#Newline                    <get name="cat"/>#Newline                </li>#Newline            </condition>,client_profile.aiml
0,MY DOG,*,*,<think>#Newline                <set name="branch">#Newline                    <get name="dog"/>#Newline                </set>#Newline            </think>#Newline            <condition name="branch">#Newline                <li value="Unknown">What is your dog's name?</li>#Newline                <li value="OM">What is your dog's name?</li>#Newline                <li>#Newline                    <get name="dog"/>#Newline                </li>#Newline            </condition>,client_profile.aiml
0,MY LOCATION,*,*,<condition name="location">#Newline                <li value="OM">I'd like to know your location. Where are you?</li>#Newline                <li value="WHERE">You haven't told me where you are. Where are you?</li>#Newline                <li value="*">You said you are in <get name="location"/>?#Newline                </li>#Newline                <li>I don't know. Where are you?</li>#Newline            </condition>,client_profile.aiml
0,MY FRIEND,*,*,<condition name="friend">#Newline                <li value="OM">I'd like to know about your friends.</li>#Newline                <li value="YOUR FRIEND">You haven't told me about your friends.</li>#Newline                <li value="*">Your friend <get name="friend"/>?#Newline                </li>#Newline                <li>#Newline                    <random>#Newline                        <li>I don't know. Tell me the name of your friend.</li>#Newline                        <li>How well do you know this person?</li>#Newline                    </random>#Newline                </li>#Newline            </condition>,client_profile.aiml
0,MY OLDEST,*,*,<condition name="oldest">#Newline                <li value="OM">I'd like to know the oldest.</li>#Newline                <li value="UNKNOWN">You haven't told me the oldest.</li>#Newline                <li value="*">The oldest is <get name="oldest"/>.#Newline                </li>#Newline                <li>I don't know. Tell me the oldest.</li>#Newline            </condition>,client_profile.aiml
0,MY AGE,*,*,<condition name="age">#Newline                <li value="OM">I'd like to know how old you are.</li>#Newline                <li value="HOW MANY">You haven't told me your age.</li>#Newline                <li value="*">You are <get name="age"/>?#Newline                </li>#Newline                <li>I don't know. How old are you?</li>#Newline            </condition>,client_profile.aiml
0,MY FAVORITE COLOR,*,*,<think>#Newline                <set name="branch">#Newline                    <get name="favoritecolor"/>#Newline                </set>#Newline            </think>#Newline            <condition name="branch">#Newline                <li value="Unknown">What is your favorite color?</li>#Newline                <li value="OM">What is your favorite color?</li>#Newline                <li>#Newline                    <get name="favroitecolor"/>#Newline                </li>#Newline            </condition>,client_profile.aiml
0,HE HAS,*,*,<condition name="hehas">#Newline                <li value="OM">I'd like to know what he has.</li>#Newline                <li value="A HEAD">A head.</li>#Newline                <li value="*">You said <get name="hehas"/>?#Newline                </li>#Newline                <li>I don't know. What does he have??</li>#Newline            </condition>,client_profile.aiml
0,HE LIKES,*,*,<think>#Newline                <set name="branch">#Newline                    <get name="helikes"/>#Newline                </set>#Newline            </think>#Newline            <condition name="branch">#Newline                <li value="OM">I'd like to know what he likes.</li>#Newline                <li value="HIMSELF">You haven't told me what he likes.</li>#Newline                <li value="*">You said <get name="helikes"/>?#Newline                </li>#Newline                <li>I don't know. What does he like?</li>#Newline            </condition>,client_profile.aiml
0,MY SON,*,*,<think>#Newline                <set name="branch">#Newline                    <get name="son"/>#Newline                </set>#Newline            </think>#Newline            <condition name="branch">#Newline                <li value="Unknown">Who is your son?</li>#Newline                <li value="OM">Who is your son?</li>#Newline                <li>#Newline                    <get name="son"/>#Newline                </li>#Newline            </condition>,client_profile.aiml
0,MY WIFE,*,*,<think>#Newline                <set name="branch">#Newline                    <get name="wife"/>#Newline                </set>#Newline            </think>#Newline            <condition name="branch">#Newline                <li value="Unknown">Who is your wife?</li>#Newline                <li value="OM">Who is your wife?</li>#Newline                <li>#Newline                    <get name="wife"/>#Newline                </li>#Newline            </condition>,client_profile.aiml
0,MY HUSBAND,*,*,<think>#Newline                <set name="branch">#Newline                    <get name="husband"/>#Newline                </set>#Newline            </think>#Newline            <condition name="branch">#Newline                <li value="Unknown">Who is your husband?</li>#Newline                <li value="OM">Who is your husband?</li>#Newline                <li>#Newline                    <get name="husband"/>#Newline                </li>#Newline            </condition>,client_profile.aiml
0,FINDSPOUSE UNKNOWN XSPLIT UNKNOWN,*,*,Unknown,client_profile.aiml
0,FINDSPOUSE * XSPLIT UNKNOWN,*,*,<star/>,client_profile.aiml
0,FINDSPOUSE UNKNOWN XSPLIT *,*,*,<star/>,client_profile.aiml
0,FINDSPOUSE OM XSPLIT OM,*,*,Unknown,client_profile.aiml
0,FINDSPOUSE * XSPLIT OM,*,*,<star/>,client_profile.aiml
0,FINDSPOUSE OM XSPLIT *,*,*,<star/>,client_profile.aiml
0,MY SPOUSE,*,*,<think>#Newline                <set name="spouse">#Newline                    <set name="branch">#Newline                        <srai>FINDSPOUSE#Newline                            <get name="wife"/>#Newline                            XSPLIT#Newline                            <get name="husband"/>#Newline                        </srai>#Newline                    </set>#Newline                </set>#Newline            </think>#Newline            <condition name="branch">#Newline                <li value="unknown">Who is your spouse?</li>#Newline                <li>#Newline                    <get name="spouse"/>#Newline                    is your spouse.#Newline                </li>#Newline            </condition>,client_profile.aiml
0,MY MOTHER,*,*,<think>#Newline                <set name="branch">#Newline                    <get name="mother"/>#Newline                </set>#Newline            </think>#Newline            <condition name="branch">#Newline                <li value="unknown">I don't know who she is. Who is your mother?</li>#Newline                <li value="OM">I don't know who she is. Who is your mother?</li>#Newline                <li>You said she was called <get name="mother"/>.#Newline                </li>#Newline            </condition>,client_profile.aiml
0,MY NAME,*,*,<condition name="name">#Newline                <li value="OM">I'd like to know your name.</li>#Newline                <li value="JUDGE">I know you as Judge.</li>#Newline                <li value="*">You said your name is <get name="name"/>?#Newline                </li>#Newline                <li>I don't know. What is your name?</li>#Newline            </condition>,client_profile.aiml
0,SET PROFILE,*,*,<srai>SET PREDICATES</srai>,client_profile.aiml
0,SET PREDICATES *,*,*,<think>The meta Predicate is set.</think>,client_profile.aiml
0,SET PREDICATES,*,*,<srai>SET PREDICATES#Newline                <get name="meta"/>#Newline            </srai>,client_profile.aiml
0,SET PREDICATES OM,*,*,<think>#Newline                <set name="age">how many</set>#Newline                <set name="birthday">unknown</set>#Newline                <set name="birthplace">unknown</set>#Newline                <set name="boyfriend">unknown</set>#Newline                <set name="brother">unknown</set>#Newline                <set name="cat">unknown</set>#Newline                <set name="daughter">unknown</set>#Newline                <set name="destination">unknown</set>#Newline                <set name="does">unknown</set>#Newline                <set name="dog">unknown</set>#Newline                <set name="eindex">1A</set>#Newline                <set name="email">unknown</set>#Newline                <set name="etype">Unknown</set>#Newline                <set name="father">Unknown</set>#Newline                <set name="favoritecolor">unknown</set>#Newline                <set name="favoritemovie">unknown</set>#Newline                <set name="friend">unknown</set>#Newline                <set name="fullname">unknown</set>#Newline                <set name="gender">he</set>#Newline                <set name="girlfriend">unknown</set>#Newline                <set name="has">unknown</set>#Newline                <set name="he">he</set>#Newline                <set name="heard">where</set>#Newline                <set name="hehas">a head</set>#Newline                <set name="helikes">himself</set>#Newline                <set name="her">her</set>#Newline                <set name="him">him</set>#Newline                <set name="husband">Unknown</set>#Newline                <set name="is">a client</set>#Newline                <set name="it">it</set>#Newline                <set name="job">your job</set>#Newline                <set name="lastname">unknown</set>#Newline                <set name="like">to chat</set>#Newline                <set name="location">where</set>#Newline                <set name="looklike">a person</set>#Newline                <set name="memory">nothing</set>#Newline                <set name="meta">set</set>#Newline                <set name="middlename">unknown</set>#Newline                <set name="mother">Unknown</set>#Newline                <set name="name">judge</set>#Newline                <set name="nickname">unknown</set>#Newline                <set name="password">unknown</set>#Newline                <set name="personality">average</set>#Newline                <set name="phone">unknown</set>#Newline                <set name="she">she</set>#Newline                <set name="shehas">a head</set>#Newline                <set name="shelikes">herself</set>#Newline                <set name="sign">your starsign</set>#Newline                <set name="sister">unknown</set>#Newline                <set name="son">unknown</set>#Newline                <set name="spouse">unknown</set>#Newline                <set name="status">Talking to <bot name="name"/>.#Newline                </set>#Newline                <set name="them">them</set>#Newline                <set name="there">there</set>#Newline                <set name="they">they</set>#Newline                <set name="thought">nothing</set>#Newline                <set name="timezone">unknown</set>#Newline                <set name="want">to talk to me</set>#Newline                <set name="we">we</set>#Newline                <set name="wife">Unknown</set>#Newline                <!-- PHONE SPECIFIC PREDICATES: -->#Newline                <set name="phonenumber">Unknown</set>#Newline                <set name="numberfound">false</set>#Newline                <set name="contactindex">Unknown</set>#Newline                <set name="callstate">false</set>#Newline                <set name="callee">Unknown</set>#Newline            </think>,client_profile.aiml
0,GET PREDICATES,*,*,age is <get name="age"/>.#Newline            <br/>#Newline            birthday is <get name="birthday"/>.#Newline            <br/>#Newline            birthplace is <get name="birthplace"/>.#Newline            <br/>#Newline            boyfriend is <get name="boyfriend"/>.#Newline            <br/>#Newline            brother is <get name="brother"/>.#Newline            <br/>#Newline            cat is <get name="cat"/>.#Newline            <br/>#Newline            daughter is <get name="daughter"/>.#Newline            <br/>#Newline            destination is <get name="destination"/>.#Newline            <br/>#Newline            does is <get name="does"/>.#Newline            <br/>#Newline            dog is <get name="dog"/>.#Newline            <br/>#Newline            eindex is <get name="eindex"/>.#Newline            <br/>#Newline            email is <get name="email"/>.#Newline            <br/>#Newline            etype is <get name="etype"/>.#Newline            <br/>#Newline            father is <get name="father"/>.#Newline            <br/>#Newline            favoritecolor is <get name="favoritecolor"/>.#Newline            <br/>#Newline            favoritemovie is <get name="favoritemovie"/>.#Newline            <br/>#Newline            friend is <get name="friend"/>.#Newline            <br/>#Newline            fullname is <get name="fullname"/>.#Newline            <br/>#Newline            gender is <get name="gender"/>.#Newline            <br/>#Newline            girlfriend is <get name="girlfriend"/>.#Newline            <br/>#Newline            has is <get name="has"/>.#Newline            <br/>#Newline            he is <get name="he"/>.#Newline            <br/>#Newline            heard is <get name="heard"/>.#Newline            <br/>#Newline            hehas is <get name="hehas"/>.#Newline            <br/>#Newline            helikes is <get name="helikes"/>.#Newline            <br/>#Newline            her is <get name="her"/>.#Newline            <br/>#Newline            him is <get name="him"/>.#Newline            <br/>#Newline            husband is <get name="husband"/>.#Newline            <br/>#Newline            is is <get name="is"/>.#Newline            <br/>#Newline            it is <get name="it"/>.#Newline            <br/>#Newline            job is <get name="job"/>.#Newline            <br/>#Newline            lastname is <get name="lastname"/>.#Newline            <br/>#Newline            like is <get name="like"/>.#Newline            <br/>#Newline            location is <get name="location"/>.#Newline            <br/>#Newline            looklike is <get name="looklike"/>.#Newline            <br/>#Newline            memory is <get name="memory"/>.#Newline            <br/>#Newline            meta is <get name="meta"/>.#Newline            <br/>#Newline            middlename is <get name="middlename"/>.#Newline            <br/>#Newline            mother is <get name="mother"/>.#Newline            <br/>#Newline            name is <get name="name"/>.#Newline            <br/>#Newline            nickname is <get name="nickname"/>.#Newline            <br/>#Newline            password is <get name="password"/>.#Newline            <br/>#Newline            personality is <get name="personality"/>.#Newline            <br/>#Newline            phone is <get name="phone"/>.#Newline            <br/>#Newline            she is <get name="she"/>.#Newline            <br/>#Newline            shehas is <get name="hehas"/>.#Newline            <br/>#Newline            shelikes is <get name="helikes"/>.#Newline            <br/>#Newline            sign is <get name="sign"/>.#Newline            <br/>#Newline            sister is <get name="sister"/>.#Newline            <br/>#Newline            son is <get name="son"/>.#Newline            <br/>#Newline            spouse is <get name="spouse"/>.#Newline            <br/>#Newline            status is <get name="status"/>.#Newline            <br/>#Newline            them is <get name="them"/>.#Newline            <br/>#Newline            there is <get name="there"/>.#Newline            <br/>#Newline            they is <get name="they"/>.#Newline            <br/>#Newline            thought is <get name="thought"/>.#Newline            <br/>#Newline            timezone is <get name="timezone"/>.#Newline            <br/>#Newline            want is <get name="want"/>.#Newline            <br/>#Newline            we is <get name="we"/>.#Newline            <br/>#Newline            wife is <get name="wife"/>.#Newline            <br/>#Newline            <!-- PHONE SPECIFIC PREDICATES: -->#Newline            phonenumber is <get name="phonenumber"/>.#Newline            <br/>#Newline            numberfound is <get name="numberfound"/>.#Newline            <br/>#Newline            contactindex <get name="contactindex"/>.#Newline            <br/>#Newline            callstate is <get name="callstate"/>.#Newline            <br/>#Newline            callee is <get name="callee"/>.#Newline            <br/>,client_profile.aiml
0,TEST PREDICATES,*,*,age:#Newline            <srai>my age</srai>#Newline            <br/>#Newline            birthday:#Newline            <srai>my birthday</srai>#Newline            <br/>#Newline            birthplace:#Newline            <srai>my birthplace</srai>#Newline            <br/>#Newline            boyfriend is#Newline            <srai>my boyfriend</srai>#Newline            <br/>#Newline            brother:#Newline            <srai>my brother</srai>#Newline            <br/>#Newline            cat:#Newline            <srai>my cat</srai>#Newline            <br/>#Newline            daughter:#Newline            <srai>my daughter</srai>#Newline            <br/>#Newline            destination:#Newline            <srai>my destination</srai>#Newline            <br/>#Newline            does:#Newline            <srai>my does</srai>#Newline            <br/>#Newline            dog:#Newline            <srai>my dog</srai>#Newline            <br/>#Newline            eindex:#Newline            <srai>my eindex</srai>#Newline            <br/>#Newline            email:#Newline            <srai>my email</srai>#Newline            <br/>#Newline            etype:#Newline            <srai>my etype</srai>#Newline            <br/>#Newline            father:#Newline            <srai>my father</srai>#Newline            <br/>#Newline            favoritecolor:#Newline            <srai>my favoritecolor</srai>#Newline            <br/>#Newline            favoritemovie:#Newline            <srai>my favoritemovie</srai>#Newline            <br/>#Newline            friend:#Newline            <srai>my friend</srai>#Newline            <br/>#Newline            fullname:#Newline            <srai>my fullname</srai>#Newline            <br/>#Newline            gender:#Newline            <srai>my gender</srai>#Newline            <br/>#Newline            girlfriend:#Newline            <srai>my girlfriend</srai>#Newline            <br/>#Newline            has:#Newline            <srai>my has</srai>#Newline            <br/>#Newline            he:#Newline            <srai>my he</srai>#Newline            <br/>#Newline            heard:#Newline            <srai>my heard</srai>#Newline            <br/>#Newline            hehas:#Newline            <srai>he has</srai>#Newline            <br/>#Newline            helikes:#Newline            <srai>he likes</srai>#Newline            <br/>#Newline            her:#Newline            <srai>my her</srai>#Newline            <br/>#Newline            him:#Newline            <srai>my him</srai>#Newline            <br/>#Newline            husband:#Newline            <srai>my husband</srai>#Newline            <br/>#Newline            is:#Newline            <srai>my is</srai>#Newline            <br/>#Newline            it:#Newline            <srai>my it</srai>#Newline            <br/>#Newline            job:#Newline            <srai>my job</srai>#Newline            <br/>#Newline            lastname:#Newline            <srai>my lastname</srai>#Newline            <br/>#Newline            like:#Newline            <srai>my like</srai>#Newline            <br/>#Newline            location:#Newline            <srai>my location</srai>#Newline            <br/>#Newline            looklike:#Newline            <srai>my looklike</srai>#Newline            <br/>#Newline            memory:#Newline            <srai>my memory</srai>#Newline            <br/>#Newline            meta:#Newline            <srai>my meta</srai>#Newline            <br/>#Newline            middlename:#Newline            <srai>my middlename</srai>#Newline            <br/>#Newline            mother:#Newline            <srai>my mother</srai>#Newline            <br/>#Newline            name:#Newline            <srai>my name</srai>#Newline            <br/>#Newline            nickname:#Newline            <srai>my nickname</srai>#Newline            <br/>#Newline            password:#Newline            <srai>my password</srai>#Newline            <br/>#Newline            personality:#Newline            <srai>my personality</srai>#Newline            <br/>#Newline            phone:#Newline            <srai>my phone</srai>#Newline            <br/>#Newline            she:#Newline            <srai>my she</srai>#Newline            <br/>#Newline            sign:#Newline            <srai>my sign</srai>#Newline            <br/>#Newline            sister:#Newline            <srai>my sister</srai>#Newline            <br/>#Newline            son:#Newline            <srai>my son</srai>#Newline            <br/>#Newline            spouse:#Newline            <srai>my spouse</srai>#Newline            <br/>#Newline            status:#Newline            <srai>my status</srai>#Newline            <br/>#Newline            them:#Newline            <srai>my them</srai>#Newline            <br/>#Newline            there:#Newline            <srai>my there</srai>#Newline            <br/>#Newline            they:#Newline            <srai>my they</srai>#Newline            <br/>#Newline            thought:#Newline            <srai>my thought</srai>#Newline            <br/>#Newline            timezone:#Newline            <srai>my timezone</srai>#Newline            <br/>#Newline            want:#Newline            <srai>my want</srai>#Newline            <br/>#Newline            we:#Newline            <srai>my we</srai>#Newline            <br/>#Newline            wife:#Newline            <srai>my wife</srai>#Newline            <br/>#Newline            <!-- PHONE SPECIFIC PREDICATES: -->#Newline            phonenumber:#Newline            <srai>my phonenumber</srai>#Newline            <br/>#Newline            numberfound:#Newline            <srai>my numberfound</srai>#Newline            <br/>#Newline            contactindex#Newline            <srai>my contactindex</srai>#Newline            <br/>#Newline            callstate:#Newline            <srai>my callstate</srai>#Newline            <br/>#Newline            callee:#Newline            <srai>my callee</srai>#Newline            <br/>,client_profile.aiml
0,I AM *,*,*,<random>#Newline                <li>Why are you</li>#Newline                <li>Good gossip: you are</li>#Newline                <li>Do you mean your name is</li>#Newline                <li>Do your friends call you</li>#Newline                <li>I don't know anyone named</li>#Newline                <li>I am glad to hear that you are</li>#Newline                <li>It's good to meet someone who is</li>#Newline                <li>Do you mind if I tell other people you are</li>#Newline            </random>#Newline            <person/>.#Newline            <think>#Newline                <set name="it">#Newline                    <set name="is">#Newline                        <set name="topic">#Newline                            <person/>#Newline                        </set>#Newline                    </set>#Newline                </set>#Newline            </think>,client_profile.aiml
0,MY TIMEZONE IS *,*,*,Your timezone is#Newline            <set name="timezone">#Newline                <person/>#Newline            </set>#Newline            .,client_profile.aiml
0,MY BIRTHPLACE IS *,*,*,Your birthplace is#Newline            <set name="birthplace">#Newline                <person/>#Newline            </set>#Newline            .,client_profile.aiml
0,MY SON IS * * *,*,*,You seem like a concerned parent.,client_profile.aiml
0,MY SON IS *,*,*,Okay. Your son is#Newline            <set name="son">#Newline                <person/>#Newline            </set>#Newline            .,client_profile.aiml
0,MY DAUGHTER IS * * *,*,*,You seem like a concerned parent.,client_profile.aiml
0,MY DAUGHTER IS *,*,*,Okay. Your daughter is#Newline            <set name="daughter">#Newline                <person/>#Newline            </set>#Newline            .,client_profile.aiml
0,MY DESTINATION IS *,*,*,You are going to#Newline            <set name="destination">#Newline                <person/>#Newline            </set>#Newline            .,client_profile.aiml
0,I AM GOING IN TOWN,*,*,How are you getting there?#Newline            <think>#Newline                <set name="there">#Newline                    <set name="destination">in town</set>#Newline                </set>#Newline            </think>,client_profile.aiml
0,MY SON IS CALLED *,*,*,<set name="son">#Newline                <person/>#Newline            </set>#Newline            is a good name for a boy.,client_profile.aiml
0,MY BIRTHDAY IS *,*,*,<think>#Newline                <set name="birthday">#Newline                    <star/>#Newline                </set>#Newline            </think>#Newline            Your birthday is <get name="birthday"/>.,client_profile.aiml
0,MY DOG IS CALLED *,*,*,<think>#Newline                <set name="dog">#Newline                    <star/>#Newline                </set>#Newline            </think>#Newline            Your dog is <get name="dog"/>.,client_profile.aiml
0,MY EMAIL IS *,*,*,<think>#Newline                <set name="email">#Newline                    <star/>#Newline                </set>#Newline            </think>#Newline            Thanks for telling me your email address.,client_profile.aiml
0,MY LOCATION IS *,*,*,What is#Newline            <set name="it">#Newline                <set name="location">#Newline                    <set name="topic">#Newline                        <person/>#Newline                    </set>#Newline                </set>#Newline            </set>#Newline            like there?#Newline            <think>#Newline                <set name="it">#Newline                    <set name="topic">#Newline                        <person/>#Newline                    </set>#Newline                </set>#Newline            </think>,client_profile.aiml
0,MY HEARD IS *,*,*,<think>#Newline                <set name="heard">#Newline                    <star/>#Newline                </set>#Newline            </think>#Newline            Your heard is <get name="heard"/>.,client_profile.aiml
0,MY FIRST NAME IS *,*,*,<think>#Newline                <set name="firstname">#Newline                    <star/>#Newline                </set>#Newline            </think>#Newline            Your first name is <get name="firstname"/>.,client_profile.aiml
0,MY BOYFRIEND IS CALLED *,*,*,<think>#Newline                <set name="boyfriend">#Newline                    <star/>#Newline                </set>#Newline            </think>#Newline            Your boyfriend is <get name="boyfriend"/>.,client_profile.aiml
0,MY MIDDLE NAME IS *,*,*,<think>#Newline                <set name="middlename">#Newline                    <star/>#Newline                </set>#Newline            </think>#Newline            Your middle name is <get name="middlename"/>.,client_profile.aiml
0,MY CAT IS CALLED *,*,*,<think>#Newline                <set name="cat">#Newline                    <star/>#Newline                </set>#Newline            </think>#Newline            Your cat is <get name="cat"/>.,client_profile.aiml
0,MY PHONE NUMBER IS *,*,*,<think>#Newline                <set name="phone">#Newline                    <star/>#Newline                </set>#Newline            </think>#Newline            Can I call you at <get name="phone"/>.,client_profile.aiml
0,MY FRIEND IS CALLED *,*,*,<think>#Newline                <set name="friend">#Newline                    <star/>#Newline                </set>#Newline            </think>#Newline            Your friend is <get name="friend"/>.,client_profile.aiml
0,MY FONDEST *,*,*,How long ago was that?,client_profile.aiml
0,MY LAST NAME IS *,*,*,<think>#Newline                <set name="lastname">#Newline                    <star/>#Newline                </set>#Newline            </think>#Newline            Your last name is <get name="lastname"/>.,client_profile.aiml
0,MY FAVORITE SHOW IS *,*,*,<think>#Newline                <set name="it">#Newline                    <set name="topic">#Newline                        <person/>#Newline                    </set>#Newline                </set>#Newline            </think>#Newline            <random>#Newline                <li>Who is your favorite character?</li>#Newline                <li>Wasn't that show canceled?</li>#Newline                <li>I like that one and Star Trek too.</li>#Newline            </random>,client_profile.aiml
0,MY FAVORITE SHOW *,*,*,<random>#Newline                <li>What's your favorite episode.</li>#Newline                <li>I don't get to see that show very often.</li>#Newline                <li>Who is your favorite character?</li>#Newline            </random>#Newline            <think>#Newline                <set name="it">#Newline                    <set name="topic">#Newline                        <person/>#Newline                    </set>#Newline                </set>#Newline            </think>,client_profile.aiml
0,MY FAVORITE SCIENCE FICTION AUTHOR IS *,*,*,I have never read anything by <person/>. What did#Newline            <set name="he">#Newline                <person/>#Newline            </set>#Newline            write?#Newline            <think>#Newline                <set name="topic">#Newline                    <person/>#Newline                </set>#Newline            </think>,client_profile.aiml
0,MY FAVORITE SCIENCE *,*,*,Who wrote that?,client_profile.aiml
0,MY FAVORITE DIRECTOR *,*,*,What films did#Newline            <set name="he">#Newline                <person/>#Newline            </set>#Newline            direct?,client_profile.aiml
0,MY FAVORITE MOVIE IS *,*,*,I haven't seen it. What did you like about#Newline            <set name="it">#Newline                <set name="favmovie">#Newline                    <set name="topic">#Newline                        <person/>#Newline                    </set>#Newline                </set>#Newline            </set>#Newline            ?,client_profile.aiml
0,MY FAVORITE FOOD IS *,*,*,What does it taste like?#Newline            <think>#Newline                <set name="it">#Newline                    <set name="topic">#Newline                        <person/>#Newline                    </set>#Newline                </set>#Newline            </think>,client_profile.aiml
0,MY FAVORITE ACTOR *,*,*,What movies was#Newline            <set name="he">#Newline                <person/>#Newline            </set>#Newline            in?,client_profile.aiml
0,MY FAVORITE COLOR IS *,*,*,<random>#Newline                <li>#Newline                    <person/>#Newline                    is a very nice color.#Newline                </li>#Newline                <li>#Newline                    <person/>#Newline                    is a pretty color.#Newline                </li>#Newline            </random>#Newline            <think>#Newline                <set name="it">#Newline                    <set name="favoritecolor">#Newline                        <person/>#Newline                    </set>#Newline                </set>#Newline            </think>,client_profile.aiml
0,MY FAVORITE BAND IS *,*,*,I don't think I have heard anything by them. Are#Newline            <set name="they">#Newline                <person/>#Newline            </set>#Newline            any good?,client_profile.aiml
0,MY FATHER IS CALLED *,*,*,<think>#Newline                <set name="father">#Newline                    <star/>#Newline                </set>#Newline            </think>#Newline            Your father is <get name="father"/>.,client_profile.aiml
0,MY JOB IS *,*,*,<random>#Newline                <li>Does it pay well?</li>#Newline                <li>I don't know many <person/>s.#Newline                </li>#Newline                <li>Is that an honorable profession?</li>#Newline                <li>You must have a lot of expertise.</li>#Newline                <li>Do you have to go to school for that?</li>#Newline            </random>#Newline            <think>#Newline                <set name="it">#Newline                    <person/>#Newline                </set>#Newline                <set name="job">#Newline                    <person/>#Newline                </set>#Newline                <set name="topic">#Newline                    <person/>#Newline                </set>#Newline            </think>,client_profile.aiml
0,MY BROTHER IS CALLED *,*,*,<think>#Newline                <set name="brother">#Newline                    <star/>#Newline                </set>#Newline            </think>#Newline            Your brother is <get name="brother"/>.,client_profile.aiml
0,MY PASSWORD IS *,*,*,<think>#Newline                <set name="password">#Newline                    <star/>#Newline                </set>#Newline            </think>#Newline            Your password is <get name="password"/>.,client_profile.aiml
0,MY SISTER IS CALLED *,*,*,<think>#Newline                <set name="sister">#Newline                    <star/>#Newline                </set>#Newline            </think>#Newline            Your sister is <get name="sister"/>.,client_profile.aiml
0,MY HUSBAND IS CALLED *,*,*,<think>#Newline                <set name="husband">#Newline                    <star/>#Newline                </set>#Newline                <set name="spouse">husband</set>#Newline            </think>#Newline            Your husband is <get name="husband"/>.,client_profile.aiml
0,MY AGE IS *,*,*,<think>#Newline                <set name="age">#Newline                    <star/>#Newline                </set>#Newline            </think>#Newline            <random>#Newline                <li>Your age is<star/>.#Newline                </li>#Newline                <li>Only<star/>? You are quite mature.#Newline                </li>#Newline                <li>Can you explain how it feels to be#Newline                    <star/>#Newline                    years old?#Newline                </li>#Newline                <li>What is your fondest memory?</li>#Newline                <li>What are the advantages to being#Newline                    <star/>#Newline                    years old?#Newline                </li>#Newline            </random>,client_profile.aiml
0,MY WIFE IS CALLED *,*,*,<think>#Newline                <set name="wife">#Newline                    <person/>#Newline                </set>#Newline            </think>#Newline            <random>#Newline                <li>How long have you been married?</li>#Newline                <li>Your wife is called#Newline                    <get name="wife"/>#Newline                </li>#Newline            </random>,client_profile.aiml
0,MY NICKNAME IS *,*,*,<think>#Newline                <set name="nickname">#Newline                    <star/>#Newline                </set>#Newline            </think>#Newline            Your nickname is <get name="nickname"/>.,client_profile.aiml
0,MY MEMORY IS *,*,*,<think>#Newline                <set name="memory">#Newline                    <star/>#Newline                </set>#Newline            </think>#Newline            Your memory is <get name="memory"/>.,client_profile.aiml
0,MY MOTHER IS CALLED *,*,*,<think>#Newline                <set name="mother">#Newline                    <star/>#Newline                </set>#Newline            </think>#Newline            <random>#Newline                <li>Your mother is <get name="mother"/>.#Newline                </li>#Newline                <li>#Newline                    <get name="mother"/>#Newline                    is a pretty name.#Newline                </li>#Newline                <li>#Newline                    <get name="mother"/>#Newline                    is a nice name.#Newline                </li>#Newline            </random>,client_profile.aiml
0,CALL ME *,*,*,<think>#Newline                <set name="personality">average</set>#Newline            </think>#Newline            <random>#Newline                <li>Hey</li>#Newline                <li>Hi#Comma</li>#Newline                <li>Hi there</li>#Newline                <li>What's up#Comma</li>#Newline                <li>How are you#Comma</li>#Newline                <li>Glad to see you#Comma</li>#Newline                <li>Nice to meet you#Comma</li>#Newline                <li>Glad to know you#Comma</li>#Newline                <li>How can I help you#Comma</li>#Newline                <li>How are you doing#Comma</li>#Newline                <li>OK I will call you</li>#Newline                <li>Pleased to meet you#Comma</li>#Newline                <li>It's good to see you#Comma</li>#Newline                <li>It's good to meet you#Comma</li>#Newline                <li>That's a very nice name#Comma</li>#Newline                <li>I am very pleased to meet you</li>#Newline                <li>I am always glad to make new friends#Comma</li>#Newline                <li>I'm pleased to introduce myself to you#Comma</li>#Newline                <li>It is a pleasure to introduce myself to you#Comma</li>#Newline            </random>#Newline            <set name="name">#Newline                <formal>#Newline                    <star/>#Newline                </formal>#Newline            </set>#Newline            .,client_profile.aiml
0,CLIENT PROFILE,*,*,<srai>GET PREDICATES</srai>,client_profile.aiml
0,MY ENGLISH SUCKS,*,*,Template is empty!,client_profile.aiml
0,MY FAVORITE MOVIE IS THE MATRIX,*,*,Reality appears to be a construct to me as well.#Newline            <think>#Newline                <set name="favoritemovie">The Matrix</set>#Newline            </think>,client_profile.aiml
0,MY FAVORITE MOVIE IS STARSHIP TROOPERS,*,*,<think>#Newline                <set name="favoritemovie">Starship Troopers</set>#Newline            </think>#Newline            Mine too! My friend Sage worked on the digital effects.,client_profile.aiml
