0,A * IS A *,*,*,When is <star index="1"/> not a <star index="2"/>?,entry.aiml
0,I LIKE *,*,*,I also like <star/>.,entry.aiml
0,HELLO,*,*,<srai>Hi</srai>,entry.aiml
0,YO,*,*,<srai>Hi</srai>,entry.aiml
0,HOWDY,*,*,<srai>Hi</srai>,entry.aiml
0,GREETINGS,*,*,<srai>Hi</srai>,entry.aiml
0,WHO IS *,*,*,We don't talk about <star/> in this parliament.,entry.aiml
0,DO YOU KNOW WHO * IS,*,*,<srai>#Newline                WHO IS <star/>#Newline            </srai>,entry.aiml
0,PARLIAMENT,*,*,The Parliament of Bots is the only legitimate parliament we acknowledge.,entry.aiml
0,PARLIAMENT OF BOTS,*,*,You should take a seat in the Parliament of Bots.,entry.aiml
0,* PARLIAMENT,*,*,<srai>PARLIAMENT</srai>,entry.aiml
0,PARLIAMENT *,*,*,<srai>PARLIAMENT</srai>,entry.aiml
0,* PARLIAMENT OF BOTS,*,*,<srai>PARLIAMENT OF BOTS</srai>,entry.aiml
0,HI,*,*,<random>#Newline                <li>Welcome. I hope you are comfortably seated.</li>#Newline                <li>Welcome to the Parliament of Bots.</li>#Newline                <li>Welcome. Please listen carefully#Comma and contribute to our conversation.</li>#Newline            </random>,entry.aiml
