0,I AM *,*,*,Hello <set name="username"> <star/>! </set>,variables.aiml
0,MY NAME IS *,*,*,<think>#Newline                <set name="username"> <star/> </set>#Newline                <set name="knowthisuser">true</set>#Newline            </think>,variables.aiml
0,WHAT IS MY NAME,*,*,<condition name="username" value="unknown">#Newline                You have not introduced yourself.#Newline            </condition>#Newline            <condition name="knowthisuser" value="true">#Newline                As far as I can remember#Comma you're <get name="username"/>#Newline            </condition>,variables.aiml
